/home/raj/Desktop/CGI 2021/1. week-1/core/demo_mockito/src/test/java/com/bookapp/service/DemoTest2.java
/home/raj/Desktop/CGI 2021/1. week-1/core/demo_mockito/src/test/java/com/demo/CalculatorTest.java
/home/raj/Desktop/CGI 2021/1. week-1/core/demo_mockito/src/test/java/com/bookapp/service/BookServiceTest.java
